…
type_data <- type_info(class="stocks")
type_data
```

    ## # A tibble: 21 x 4
    ##    code    type     asset_class locale
    ##    <chr>   <chr>    <chr>       <chr> 
    ##  1 CS      Common ~ stocks      us    
    ##  2 PFD     Preferr~ stocks      us    
    ##  3 WARRANT Warrant  stocks      us    
    ##  4 RIGHT   Rights   stocks      us    
    ##  5 BOND    Corpora~ stocks      us    
    ##  6 ETF     Exchang~ stocks      us    
    ##  7 ETN     Exchang~ stocks      us    
    ##  8 SP      Structu~ stocks      us    
    ##  9 ADRC    America~ stocks      us    
    ## 10 ADRW    America~ stocks      us    
    ## # ... with 11 more rows
…
        tikers_raw <- GET(paste0(mainURL, option, apikey))
        tickers_data <- fromJSON(rawToChar(tikers_raw$content))
        tickers <- tickers_data$results %>% as_tibble()
        tickers_info <- bind_rows(tickers_info, tickers)
        next_url <- tickers_data$next_url
        option <- next_url
    }
    return(tickers_info)
}
#check all ADRC tickers
ADRC_tickers <- tickers_supported(type="American Depository Receipt Common")
ADRC_tickers
```

    ## # A tibble: 1,100 x 12
    ##    ticker name     market locale type 
    ##    <chr>  <chr>    <chr>  <chr>  <chr>
    ##  1 AAALY  AAREAL ~ otc    us     ADRC 
    ##  2 AACAY  AAC TEC~ otc    us     ADRC 
    ##  3 AACG   ATA Cre~ stocks us     ADRC 
    ##  4 AAGIY  AIA GRO~ otc    us     ADRC 
    ##  5 AAGRY  ASTRA A~ otc    us     ADRC 
    ##  6 AARTY  AIRTEL ~ otc    us     ADRC 
    ##  7 AAVMY  ABN AMR~ otc    us     ADRC 
    ##  8 AAYYY  AUSTRAL~ otc    us     ADRC 
    ##  9 ABB    ABB Ltd. stocks us     ADRC 
    ## 10 ABCM   Abcam p~ stocks us     ADRC 
    ## # ... with 1,090 more rows, and 7
    ## #   more variables: active <lgl>,
    ## #   currency_name <chr>,
    ## #   composite_figi <chr>,
    ## #   share_class_figi <chr>,
    ## #   last_updated_utc <chr>,
    ## #   primary_exchange <chr>, ...
…
# check
#AAPL_price <- stock_price("AAPL", "1", "day", "2021-06-01", "2022-06-01")
#AAPL_price
```

``` r
tickers_interest=c("AAPL","ZM","GOOGL","TSLA")
stock_data <- lapply(X=tickers_interest, FUN=stock_price, multiplier="1",
                         timespan="day",from="2021-06-01", to="2022-06-01") %>% reduce(bind_rows)
stock_data
```

    ## # A tibble: 1,016 x 7
    ##    ticker date       close highest
    ##    <chr>  <date>     <dbl>   <dbl>
    ##  1 AAPL   2021-06-01  124.    125.
    ##  2 AAPL   2021-06-02  125.    125.
    ##  3 AAPL   2021-06-03  124.    125.
    ##  4 AAPL   2021-06-04  126.    126.
    ##  5 AAPL   2021-06-07  126.    126.
    ##  6 AAPL   2021-06-08  127.    128.
    ##  7 AAPL   2021-06-09  127.    128.
    ##  8 AAPL   2021-06-10  126.    128.
    ##  9 AAPL   2021-06-11  127.    127.
    ## 10 AAPL   2021-06-14  130.    131.
    ## # ... with 1,006 more rows, and 3
    ## #   more variables: lowest <dbl>,
    ## #   open <dbl>, volume <dbl>
…
get_returns <- function(data_set){
    returns <- function(x){
        n=length(x)
        returns <- c(NA, (x[2:n]-x[1:(n-1)])/(x[1:(n-1)]))
        return(returns)
    }
    new_data <- data_set %>% group_by(ticker) %>% mutate(return=returns(close)) %>% ungroup()
    return(new_data)
}
#get new tibble
return_data <- get_returns(stock_data)
return_data
```

    ## # A tibble: 1,016 x 8
    ##    ticker date       close highest
    ##    <chr>  <date>     <dbl>   <dbl>
    ##  1 AAPL   2021-06-01  124.    125.
    ##  2 AAPL   2021-06-02  125.    125.
    ##  3 AAPL   2021-06-03  124.    125.
    ##  4 AAPL   2021-06-04  126.    126.
    ##  5 AAPL   2021-06-07  126.    126.
    ##  6 AAPL   2021-06-08  127.    128.
    ##  7 AAPL   2021-06-09  127.    128.
    ##  8 AAPL   2021-06-10  126.    128.
    ##  9 AAPL   2021-06-11  127.    127.
    ## 10 AAPL   2021-06-14  130.    131.
    ## # ... with 1,006 more rows, and 4
    ## #   more variables: lowest <dbl>,
    ## #   open <dbl>, volume <dbl>,
    ## #   return <dbl>
…
get_moving_mean <- function(data_set,window){
    moving_mean <- function(x,window){
        moving_mean <- rollmean(x, k=window, fill=list(NA, NULL, NA), align="right")
        return(moving_mean)
    }
    new_data <- data_set %>% group_by(ticker) %>%
        mutate(mean10=moving_mean(close,10),mean30=moving_mean(close,30))
    return(new_data)
}
#test new function
moving_mean_data <- stock_data %>% get_moving_mean(10) %>%  get_moving_mean(30)
moving_mean_data
```

    ## # A tibble: 1,016 x 9
    ## # Groups:   ticker [4]
    ##    ticker date       close highest
    ##    <chr>  <date>     <dbl>   <dbl>
    ##  1 AAPL   2021-06-01  124.    125.
    ##  2 AAPL   2021-06-02  125.    125.
    ##  3 AAPL   2021-06-03  124.    125.
    ##  4 AAPL   2021-06-04  126.    126.
    ##  5 AAPL   2021-06-07  126.    126.
    ##  6 AAPL   2021-06-08  127.    128.
    ##  7 AAPL   2021-06-09  127.    128.
    ##  8 AAPL   2021-06-10  126.    128.
    ##  9 AAPL   2021-06-11  127.    127.
    ## 10 AAPL   2021-06-14  130.    131.
    ## # ... with 1,006 more rows, and 5
    ## #   more variables: lowest <dbl>,
    ## #   open <dbl>, volume <dbl>,
    ## #   mean10 <dbl>, mean30 <dbl>
…
